  .   *   ..  . *  *      .   *   ..  . *  *
*  * @()Ooc()*   o  .    *  * @()Ooc()*   o  .
    (Q@*0CG*O()  ___         (Q@*0CG*O()  ___
   |\_________/|/ _ \       |\_________/|/ _ \
   |  |  |  |  | / | |      |  |  |  |  | / | |
   |  |  |  |  | | | |      |  |  |  |  | | | |
   |  |  |  |  | | | |      |  |  |  |  | | | |
   |  |  |  |  | | | |      |  |  |  |  | | | |
   |  |  |  |  | | | |      |  |  |  |  | | | |
   |  |  |  |  | \_| |      |  |  |  |  | \_| |
   |  |  |  |  |\___/       |  |  |  |  |\___/
   |\_|__|__|_/|            |\_|__|__|_/|
    \_________/              \_________/

:: Spring Boot ${spring-boot.formatted-version} :: :: (v@project.parent.version@) ::
